module gitlab.com/fogo/extremego

go 1.15

require (
	github.com/gin-gonic/gin v1.6.3
	github.com/go-playground/validator/v10 v10.4.0 // indirect
	github.com/golang/protobuf v1.4.2 // indirect
	github.com/google/uuid v1.1.2
	github.com/json-iterator/go v1.1.10 // indirect
	github.com/modern-go/concurrent v0.0.0-20180306012644-bacd9c7ef1dd // indirect
	github.com/modern-go/reflect2 v1.0.1 // indirect
	github.com/spf13/cobra v1.0.0
	github.com/ugorji/go v1.1.10 // indirect
	golang.org/x/crypto v0.0.0-20201002170205-7f63de1d35b0 // indirect
	golang.org/x/sync v0.0.0-20201020160332-67f06af15bc9
	golang.org/x/sys v0.0.0-20201009025420-dfb3f7c4e634 // indirect
	google.golang.org/protobuf v1.25.0 // indirect
	gopkg.in/yaml.v2 v2.3.0 // indirect
)
